…
imports_85_table_readr <- read_csv('imports_85.data',
         col_names = column_names,
         col_types = column_classes,
         na = c("?","NA")
         )
```

    ## Warning: The following named parsers don't match the column names:
    ## normalized_losses

``` r
imports_85_table_readr
```

    ## # A tibble: 205 x 26
    ##    symboling normailzed_losses make      fuel_type aspiration num_of_doors
    ##        <dbl>             <int> <chr>     <chr>     <chr>      <chr>       
    ##  1      3.00                NA alfa-rom~ gas       std        two         
    ##  2      3.00                NA alfa-rom~ gas       std        two         
    ##  3      1.00                NA alfa-rom~ gas       std        two         
    ##  4      2.00               164 audi      gas       std        four        
    ##  5      2.00               164 audi      gas       std        four        
    ##  6      2.00                NA audi      gas       std        two         
    ##  7      1.00               158 audi      gas       std        four        
    ##  8      1.00                NA audi      gas       std        four        
    ##  9      1.00               158 audi      gas       turbo      four        
    ## 10      0                   NA audi      gas       turbo      two         
    ## # ... with 195 more rows, and 20 more variables: body_style <chr>,
    ## #   drive_wheels <chr>, engine_location <chr>, wheel_base <dbl>, length
    ## #   <dbl>, width <dbl>, height <dbl>, curb_weight <int>, engine_type
    ## #   <chr>, num_of_cylinders <chr>, engine_size <int>, fuel_system <chr>,
    ## #   bore <dbl>, stroke <dbl>, compression_ratio <dbl>, horsepower <int>,
    ## #   peak_rpm <int>, city_mpg <int>, highway_mpg <int>, price <int>
…
